{
  "images" : [
    {
      "idiom" : "universal",
      "filename" : "277x288.png",
      "scale" : "1x"
    },
    {
      "idiom" : "universal",
      "filename" : "739x768.png",
      "scale" : "2x"
    },
    {
      "idiom" : "universal",
      "filename" : "1108x1152.png",
      "scale" : "3x"
    }
  ],
  "info" : {
    "version" : 1,
    "author" : "xcode"
  }
}